-------------------------------------------------------------------------------
Test set: TestSuite
-------------------------------------------------------------------------------
Tests run: 1, Failures: 1, Errors: 0, Skipped: 0, Time elapsed: 11.26 s <<< FAILURE! - in TestSuite
GoogleSearchTest(GoogleSearch)  Time elapsed: 1.829 s  <<< FAILURE!
java.lang.AssertionError: Check link for the first element on the list expected [https://www.google.com.ua/?hl=ru] but found [www.google.com.ua/?hl=ru]
	at GoogleSearch.GoogleSearchTest(GoogleSearch.java:20)

